%YAML 1.1
%TAG !u! tag:unity3d.com,2011:
--- !u!1045 &1
EditorBuildSettings:
  m_ObjectHideFlags: 0
  serializedVersion: 2
  m_Scenes:
  - enabled: 1
    path: Assets/Scenes/spectrum.unity
    guid: afef22e17a7ed47d28b04f3a1ad6ecb0
  m_configObjects: {}
